{
"mantap10": 
  {
    "ansible_all_ipv4_addresses": [
      "192.168.1.10",
      "10.0.0.10"
    ],
    "ansible_all_ipv6_addresses": [
      "fe80::ca:feff:fef0:d0a",
      "fe80::5652:feff:fef0:d0a"
    ],
    "ansible_apparmor": {
      "status": "enabled"
    },
    "ansible_architecture": "x86_64",
    "ansible_bios_date": "04/01/2014",
    "ansible_bios_vendor": "SeaBIOS",
    "ansible_bios_version": "rel-1.13.0-0-gf21b5a4aeb02-prebuilt.qemu.org",
    "ansible_board_asset_tag": "NA",
    "ansible_board_name": "NA",
    "ansible_board_serial": "NA",
    "ansible_board_vendor": "NA",
    "ansible_board_version": "NA",
    "ansible_chassis_asset_tag": "NA",
    "ansible_chassis_serial": "NA",
    "ansible_chassis_vendor": "QEMU",
    "ansible_chassis_version": "pc-i440fx-5.0",
    "ansible_check_mode": false,
    "ansible_cmdline": {
      "BOOT_IMAGE": "/vmlinuz-4.19.0-16-amd64",
      "debian-installer": "en_US.UTF-8",
      "quiet": true,
      "ro": true,
      "root": "/dev/mapper/vm--vg-root"
    },
    "ansible_config_file": null,
    "ansible_date_time": {
      "date": "2021-07-06",
      "day": "06",
      "epoch": "1625552212",
      "hour": "06",
      "iso8601": "2021-07-06T06:16:52Z",
      "iso8601_basic": "20210706T061652999546",
      "iso8601_basic_short": "20210706T061652",
      "iso8601_micro": "2021-07-06T06:16:52.999546Z",
      "minute": "16",
      "month": "07",
      "second": "52",
      "time": "06:16:52",
      "tz": "UTC",
      "tz_offset": "+0000",
      "weekday": "Tuesday",
      "weekday_number": "2",
      "weeknumber": "27",
      "year": "2021"
    },
    "ansible_default_ipv4": {
      "address": "192.168.1.10",
      "alias": "ens3",
      "broadcast": "192.168.1.255",
      "gateway": "192.168.1.1",
      "interface": "ens3",
      "macaddress": "02:ca:fe:f0:0d:0a",
      "mtu": 1500,
      "netmask": "255.255.255.0",
      "network": "192.168.1.0",
      "type": "ether"
    },
    "ansible_default_ipv6": {},
    "ansible_device_links": {
      "ids": {
        "dm-0": [
          "dm-name-vm--vg-root",
          "dm-uuid-LVM-bbvikBPVU1Uk7qW1c8FsZ3x7dMiEZLKT2K06sAE30aGnInEcVP2RQOXNiy9e9PeV"
        ],
        "dm-1": [
          "dm-name-vm--vg-swap_1",
          "dm-uuid-LVM-bbvikBPVU1Uk7qW1c8FsZ3x7dMiEZLKTFeebyKpkai0CqqiLiVNsVKy2BnOV8sgn"
        ],
        "sda": [
          "ata-QEMU_HARDDISK_QM00001"
        ],
        "sda1": [
          "ata-QEMU_HARDDISK_QM00001-part1"
        ],
        "sda2": [
          "ata-QEMU_HARDDISK_QM00001-part2"
        ],
        "sda5": [
          "ata-QEMU_HARDDISK_QM00001-part5",
          "lvm-pv-uuid-DGDS3L-Y5xq-QXWL-twvN-BwVW-NON7-BtDBYc"
        ],
        "sr0": [
          "ata-QEMU_DVD-ROM_QM00003"
        ]
      },
      "labels": {
        "sr0": [
          "cidata"
        ]
      },
      "masters": {
        "sda5": [
          "dm-0",
          "dm-1"
        ]
      },
      "uuids": {
        "dm-0": [
          "dc7ee9cb-dfd5-47ee-af96-76f82c09b0cb"
        ],
        "dm-1": [
          "b85cc7d2-84f1-4150-b34a-848ce2037dee"
        ],
        "sda1": [
          "4dad1f6c-b937-4490-841c-ea682879dd5f"
        ],
        "sr0": [
          "2021-07-06-06-13-08-00"
        ]
      }
    },
    "ansible_devices": {
      "dm-0": {
        "holders": [],
        "host": "",
        "links": {
          "ids": [
            "dm-name-vm--vg-root",
            "dm-uuid-LVM-bbvikBPVU1Uk7qW1c8FsZ3x7dMiEZLKT2K06sAE30aGnInEcVP2RQOXNiy9e9PeV"
          ],
          "labels": [],
          "masters": [],
          "uuids": [
            "dc7ee9cb-dfd5-47ee-af96-76f82c09b0cb"
          ]
        },
        "model": null,
        "partitions": {},
        "removable": "0",
        "rotational": "1",
        "sas_address": null,
        "sas_device_handle": null,
        "scheduler_mode": "",
        "sectors": "206700544",
        "sectorsize": "512",
        "size": "98.56 GB",
        "support_discard": "512",
        "vendor": null,
        "virtual": 1
      },
      "dm-1": {
        "holders": [],
        "host": "",
        "links": {
          "ids": [
            "dm-name-vm--vg-swap_1",
            "dm-uuid-LVM-bbvikBPVU1Uk7qW1c8FsZ3x7dMiEZLKTFeebyKpkai0CqqiLiVNsVKy2BnOV8sgn"
          ],
          "labels": [],
          "masters": [],
          "uuids": [
            "b85cc7d2-84f1-4150-b34a-848ce2037dee"
          ]
        },
        "model": null,
        "partitions": {},
        "removable": "0",
        "rotational": "1",
        "sas_address": null,
        "sas_device_handle": null,
        "scheduler_mode": "",
        "sectors": "2007040",
        "sectorsize": "512",
        "size": "980.00 MB",
        "support_discard": "512",
        "vendor": null,
        "virtual": 1
      },
      "fd0": {
        "holders": [],
        "host": "",
        "links": {
          "ids": [],
          "labels": [],
          "masters": [],
          "uuids": []
        },
        "model": null,
        "partitions": {},
        "removable": "1",
        "rotational": "1",
        "sas_address": null,
        "sas_device_handle": null,
        "scheduler_mode": "cfq",
        "sectors": "8",
        "sectorsize": "512",
        "size": "4.00 KB",
        "support_discard": "0",
        "vendor": null,
        "virtual": 1
      },
      "sda": {
        "holders": [],
        "host": "IDE interface: Intel Corporation 82371SB PIIX3 IDE [Natoma/Triton II]",
        "links": {
          "ids": [
            "ata-QEMU_HARDDISK_QM00001"
          ],
          "labels": [],
          "masters": [],
          "uuids": []
        },
        "model": "QEMU HARDDISK",
        "partitions": {
          "sda1": {
            "holders": [],
            "links": {
              "ids": [
                "ata-QEMU_HARDDISK_QM00001-part1"
              ],
              "labels": [],
              "masters": [],
              "uuids": [
                "4dad1f6c-b937-4490-841c-ea682879dd5f"
              ]
            },
            "sectors": "997376",
            "sectorsize": 512,
            "size": "487.00 MB",
            "start": "2048",
            "uuid": "4dad1f6c-b937-4490-841c-ea682879dd5f"
          },
          "sda2": {
            "holders": [],
            "links": {
              "ids": [
                "ata-QEMU_HARDDISK_QM00001-part2"
              ],
              "labels": [],
              "masters": [],
              "uuids": []
            },
            "sectors": "2",
            "sectorsize": 512,
            "size": "1.00 KB",
            "start": "1001470",
            "uuid": null
          },
          "sda5": {
            "holders": [
              "vm--vg-swap_1",
              "vm--vg-root"
            ],
            "links": {
              "ids": [
                "ata-QEMU_HARDDISK_QM00001-part5",
                "lvm-pv-uuid-DGDS3L-Y5xq-QXWL-twvN-BwVW-NON7-BtDBYc"
              ],
              "labels": [],
              "masters": [
                "dm-0",
                "dm-1"
              ],
              "uuids": []
            },
            "sectors": "208711680",
            "sectorsize": 512,
            "size": "99.52 GB",
            "start": "1001472",
            "uuid": null
          }
        },
        "removable": "0",
        "rotational": "1",
        "sas_address": null,
        "sas_device_handle": null,
        "scheduler_mode": "mq-deadline",
        "sectors": "209715200",
        "sectorsize": "512",
        "size": "100.00 GB",
        "support_discard": "512",
        "vendor": "ATA",
        "virtual": 1
      },
      "sr0": {
        "holders": [],
        "host": "IDE interface: Intel Corporation 82371SB PIIX3 IDE [Natoma/Triton II]",
        "links": {
          "ids": [
            "ata-QEMU_DVD-ROM_QM00003"
          ],
          "labels": [
            "cidata"
          ],
          "masters": [],
          "uuids": [
            "2021-07-06-06-13-08-00"
          ]
        },
        "model": "QEMU DVD-ROM",
        "partitions": {},
        "removable": "1",
        "rotational": "1",
        "sas_address": null,
        "sas_device_handle": null,
        "scheduler_mode": "mq-deadline",
        "sectors": "780",
        "sectorsize": "2048",
        "size": "390.00 KB",
        "support_discard": "0",
        "vendor": "QEMU",
        "virtual": 1
      }
    },
    "ansible_distribution": "Debian",
    "ansible_distribution_file_parsed": true,
    "ansible_distribution_file_path": "/etc/os-release",
    "ansible_distribution_file_variety": "Debian",
    "ansible_distribution_major_version": "10",
    "ansible_distribution_release": "buster",
    "ansible_distribution_version": "10",
    "ansible_dns": {
      "nameservers": [
        "10.0.2.3"
      ]
    },
    "ansible_domain": "",
    "ansible_effective_group_id": 0,
    "ansible_effective_user_id": 0,
    "ansible_ens3": {
      "active": true,
      "device": "ens3",
      "ipv4": {
        "address": "192.168.1.10",
        "broadcast": "192.168.1.255",
        "netmask": "255.255.255.0",
        "network": "192.168.1.0"
      },
      "ipv6": [
        {
          "address": "fe80::ca:feff:fef0:d0a",
          "prefix": "64",
          "scope": "link"
        }
      ],
      "macaddress": "02:ca:fe:f0:0d:0a",
      "module": "e1000",
      "mtu": 1500,
      "pciid": "0000:00:03.0",
      "promisc": false,
      "speed": 1000,
      "type": "ether"
    },
    "ansible_ens4": {
      "active": true,
      "device": "ens4",
      "ipv4": {
        "address": "10.0.0.10",
        "broadcast": "10.0.0.255",
        "netmask": "255.255.255.0",
        "network": "10.0.0.0"
      },
      "ipv6": [
        {
          "address": "fe80::5652:feff:fef0:d0a",
          "prefix": "64",
          "scope": "link"
        }
      ],
      "macaddress": "54:52:fe:f0:0d:0a",
      "module": "e1000",
      "mtu": 1500,
      "pciid": "0000:00:04.0",
      "promisc": false,
      "speed": 1000,
      "type": "ether"
    },
    "ansible_env": {
      "DBUS_SESSION_BUS_ADDRESS": "unix:path=/run/user/0/bus",
      "HOME": "/root",
      "LANG": "en_US.UTF-8",
      "LC_ALL": "en_US.UTF-8",
      "LOGNAME": "root",
      "MAIL": "/var/mail/root",
      "PATH": "/usr/local/sbin:/usr/local/bin:/usr/sbin:/usr/bin:/sbin:/bin",
      "PWD": "/root",
      "SHELL": "/bin/bash",
      "SHLVL": "0",
      "SSH_CLIENT": "10.0.0.1 50436 22",
      "SSH_CONNECTION": "10.0.0.1 50436 10.0.0.10 22",
      "SSH_TTY": "/dev/pts/0",
      "TERM": "unknown",
      "USER": "root",
      "XDG_RUNTIME_DIR": "/run/user/0",
      "XDG_SESSION_CLASS": "user",
      "XDG_SESSION_ID": "5",
      "XDG_SESSION_TYPE": "tty",
      "_": "/bin/sh"
    },
    "ansible_facts": {
      "_ansible_facts_gathered": true,
      "all_ipv4_addresses": [
        "192.168.1.10",
        "10.0.0.10"
      ],
      "all_ipv6_addresses": [
        "fe80::ca:feff:fef0:d0a",
        "fe80::5652:feff:fef0:d0a"
      ],
      "ansible_local": {},
      "apparmor": {
        "status": "enabled"
      },
      "architecture": "x86_64",
      "bios_date": "04/01/2014",
      "bios_vendor": "SeaBIOS",
      "bios_version": "rel-1.13.0-0-gf21b5a4aeb02-prebuilt.qemu.org",
      "board_asset_tag": "NA",
      "board_name": "NA",
      "board_serial": "NA",
      "board_vendor": "NA",
      "board_version": "NA",
      "chassis_asset_tag": "NA",
      "chassis_serial": "NA",
      "chassis_vendor": "QEMU",
      "chassis_version": "pc-i440fx-5.0",
      "cmdline": {
        "BOOT_IMAGE": "/vmlinuz-4.19.0-16-amd64",
        "debian-installer": "en_US.UTF-8",
        "quiet": true,
        "ro": true,
        "root": "/dev/mapper/vm--vg-root"
      },
      "date_time": {
        "date": "2021-07-06",
        "day": "06",
        "epoch": "1625552212",
        "hour": "06",
        "iso8601": "2021-07-06T06:16:52Z",
        "iso8601_basic": "20210706T061652999546",
        "iso8601_basic_short": "20210706T061652",
        "iso8601_micro": "2021-07-06T06:16:52.999546Z",
        "minute": "16",
        "month": "07",
        "second": "52",
        "time": "06:16:52",
        "tz": "UTC",
        "tz_offset": "+0000",
        "weekday": "Tuesday",
        "weekday_number": "2",
        "weeknumber": "27",
        "year": "2021"
      },
      "default_ipv4": {
        "address": "192.168.1.10",
        "alias": "ens3",
        "broadcast": "192.168.1.255",
        "gateway": "192.168.1.1",
        "interface": "ens3",
        "macaddress": "02:ca:fe:f0:0d:0a",
        "mtu": 1500,
        "netmask": "255.255.255.0",
        "network": "192.168.1.0",
        "type": "ether"
      },
      "default_ipv6": {},
      "device_links": {
        "ids": {
          "dm-0": [
            "dm-name-vm--vg-root",
            "dm-uuid-LVM-bbvikBPVU1Uk7qW1c8FsZ3x7dMiEZLKT2K06sAE30aGnInEcVP2RQOXNiy9e9PeV"
          ],
          "dm-1": [
            "dm-name-vm--vg-swap_1",
            "dm-uuid-LVM-bbvikBPVU1Uk7qW1c8FsZ3x7dMiEZLKTFeebyKpkai0CqqiLiVNsVKy2BnOV8sgn"
          ],
          "sda": [
            "ata-QEMU_HARDDISK_QM00001"
          ],
          "sda1": [
            "ata-QEMU_HARDDISK_QM00001-part1"
          ],
          "sda2": [
            "ata-QEMU_HARDDISK_QM00001-part2"
          ],
          "sda5": [
            "ata-QEMU_HARDDISK_QM00001-part5",
            "lvm-pv-uuid-DGDS3L-Y5xq-QXWL-twvN-BwVW-NON7-BtDBYc"
          ],
          "sr0": [
            "ata-QEMU_DVD-ROM_QM00003"
          ]
        },
        "labels": {
          "sr0": [
            "cidata"
          ]
        },
        "masters": {
          "sda5": [
            "dm-0",
            "dm-1"
          ]
        },
        "uuids": {
          "dm-0": [
            "dc7ee9cb-dfd5-47ee-af96-76f82c09b0cb"
          ],
          "dm-1": [
            "b85cc7d2-84f1-4150-b34a-848ce2037dee"
          ],
          "sda1": [
            "4dad1f6c-b937-4490-841c-ea682879dd5f"
          ],
          "sr0": [
            "2021-07-06-06-13-08-00"
          ]
        }
      },
      "devices": {
        "dm-0": {
          "holders": [],
          "host": "",
          "links": {
            "ids": [
              "dm-name-vm--vg-root",
              "dm-uuid-LVM-bbvikBPVU1Uk7qW1c8FsZ3x7dMiEZLKT2K06sAE30aGnInEcVP2RQOXNiy9e9PeV"
            ],
            "labels": [],
            "masters": [],
            "uuids": [
              "dc7ee9cb-dfd5-47ee-af96-76f82c09b0cb"
            ]
          },
          "model": null,
          "partitions": {},
          "removable": "0",
          "rotational": "1",
          "sas_address": null,
          "sas_device_handle": null,
          "scheduler_mode": "",
          "sectors": "206700544",
          "sectorsize": "512",
          "size": "98.56 GB",
          "support_discard": "512",
          "vendor": null,
          "virtual": 1
        },
        "dm-1": {
          "holders": [],
          "host": "",
          "links": {
            "ids": [
              "dm-name-vm--vg-swap_1",
              "dm-uuid-LVM-bbvikBPVU1Uk7qW1c8FsZ3x7dMiEZLKTFeebyKpkai0CqqiLiVNsVKy2BnOV8sgn"
            ],
            "labels": [],
            "masters": [],
            "uuids": [
              "b85cc7d2-84f1-4150-b34a-848ce2037dee"
            ]
          },
          "model": null,
          "partitions": {},
          "removable": "0",
          "rotational": "1",
          "sas_address": null,
          "sas_device_handle": null,
          "scheduler_mode": "",
          "sectors": "2007040",
          "sectorsize": "512",
          "size": "980.00 MB",
          "support_discard": "512",
          "vendor": null,
          "virtual": 1
        },
        "fd0": {
          "holders": [],
          "host": "",
          "links": {
            "ids": [],
            "labels": [],
            "masters": [],
            "uuids": []
          },
          "model": null,
          "partitions": {},
          "removable": "1",
          "rotational": "1",
          "sas_address": null,
          "sas_device_handle": null,
          "scheduler_mode": "cfq",
          "sectors": "8",
          "sectorsize": "512",
          "size": "4.00 KB",
          "support_discard": "0",
          "vendor": null,
          "virtual": 1
        },
        "sda": {
          "holders": [],
          "host": "IDE interface: Intel Corporation 82371SB PIIX3 IDE [Natoma/Triton II]",
          "links": {
            "ids": [
              "ata-QEMU_HARDDISK_QM00001"
            ],
            "labels": [],
            "masters": [],
            "uuids": []
          },
          "model": "QEMU HARDDISK",
          "partitions": {
            "sda1": {
              "holders": [],
              "links": {
                "ids": [
                  "ata-QEMU_HARDDISK_QM00001-part1"
                ],
                "labels": [],
                "masters": [],
                "uuids": [
                  "4dad1f6c-b937-4490-841c-ea682879dd5f"
                ]
              },
              "sectors": "997376",
              "sectorsize": 512,
              "size": "487.00 MB",
              "start": "2048",
              "uuid": "4dad1f6c-b937-4490-841c-ea682879dd5f"
            },
            "sda2": {
              "holders": [],
              "links": {
                "ids": [
                  "ata-QEMU_HARDDISK_QM00001-part2"
                ],
                "labels": [],
                "masters": [],
                "uuids": []
              },
              "sectors": "2",
              "sectorsize": 512,
              "size": "1.00 KB",
              "start": "1001470",
              "uuid": null
            },
            "sda5": {
              "holders": [
                "vm--vg-swap_1",
                "vm--vg-root"
              ],
              "links": {
                "ids": [
                  "ata-QEMU_HARDDISK_QM00001-part5",
                  "lvm-pv-uuid-DGDS3L-Y5xq-QXWL-twvN-BwVW-NON7-BtDBYc"
                ],
                "labels": [],
                "masters": [
                  "dm-0",
                  "dm-1"
                ],
                "uuids": []
              },
              "sectors": "208711680",
              "sectorsize": 512,
              "size": "99.52 GB",
              "start": "1001472",
              "uuid": null
            }
          },
          "removable": "0",
          "rotational": "1",
          "sas_address": null,
          "sas_device_handle": null,
          "scheduler_mode": "mq-deadline",
          "sectors": "209715200",
          "sectorsize": "512",
          "size": "100.00 GB",
          "support_discard": "512",
          "vendor": "ATA",
          "virtual": 1
        },
        "sr0": {
          "holders": [],
          "host": "IDE interface: Intel Corporation 82371SB PIIX3 IDE [Natoma/Triton II]",
          "links": {
            "ids": [
              "ata-QEMU_DVD-ROM_QM00003"
            ],
            "labels": [
              "cidata"
            ],
            "masters": [],
            "uuids": [
              "2021-07-06-06-13-08-00"
            ]
          },
          "model": "QEMU DVD-ROM",
          "partitions": {},
          "removable": "1",
          "rotational": "1",
          "sas_address": null,
          "sas_device_handle": null,
          "scheduler_mode": "mq-deadline",
          "sectors": "780",
          "sectorsize": "2048",
          "size": "390.00 KB",
          "support_discard": "0",
          "vendor": "QEMU",
          "virtual": 1
        }
      },
      "discovered_interpreter_python": "/usr/bin/python",
      "distribution": "Debian",
      "distribution_file_parsed": true,
      "distribution_file_path": "/etc/os-release",
      "distribution_file_variety": "Debian",
      "distribution_major_version": "10",
      "distribution_release": "buster",
      "distribution_version": "10",
      "dns": {
        "nameservers": [
          "10.0.2.3"
        ]
      },
      "domain": "",
      "effective_group_id": 0,
      "effective_user_id": 0,
      "ens3": {
        "active": true,
        "device": "ens3",
        "ipv4": {
          "address": "192.168.1.10",
          "broadcast": "192.168.1.255",
          "netmask": "255.255.255.0",
          "network": "192.168.1.0"
        },
        "ipv6": [
          {
            "address": "fe80::ca:feff:fef0:d0a",
            "prefix": "64",
            "scope": "link"
          }
        ],
        "macaddress": "02:ca:fe:f0:0d:0a",
        "module": "e1000",
        "mtu": 1500,
        "pciid": "0000:00:03.0",
        "promisc": false,
        "speed": 1000,
        "type": "ether"
      },
      "ens4": {
        "active": true,
        "device": "ens4",
        "ipv4": {
          "address": "10.0.0.10",
          "broadcast": "10.0.0.255",
          "netmask": "255.255.255.0",
          "network": "10.0.0.0"
        },
        "ipv6": [
          {
            "address": "fe80::5652:feff:fef0:d0a",
            "prefix": "64",
            "scope": "link"
          }
        ],
        "macaddress": "54:52:fe:f0:0d:0a",
        "module": "e1000",
        "mtu": 1500,
        "pciid": "0000:00:04.0",
        "promisc": false,
        "speed": 1000,
        "type": "ether"
      },
      "env": {
        "DBUS_SESSION_BUS_ADDRESS": "unix:path=/run/user/0/bus",
        "HOME": "/root",
        "LANG": "en_US.UTF-8",
        "LC_ALL": "en_US.UTF-8",
        "LOGNAME": "root",
        "MAIL": "/var/mail/root",
        "PATH": "/usr/local/sbin:/usr/local/bin:/usr/sbin:/usr/bin:/sbin:/bin",
        "PWD": "/root",
        "SHELL": "/bin/bash",
        "SHLVL": "0",
        "SSH_CLIENT": "10.0.0.1 50436 22",
        "SSH_CONNECTION": "10.0.0.1 50436 10.0.0.10 22",
        "SSH_TTY": "/dev/pts/0",
        "TERM": "unknown",
        "USER": "root",
        "XDG_RUNTIME_DIR": "/run/user/0",
        "XDG_SESSION_CLASS": "user",
        "XDG_SESSION_ID": "5",
        "XDG_SESSION_TYPE": "tty",
        "_": "/bin/sh"
      },
      "fibre_channel_wwn": [],
      "fips": false,
      "form_factor": "Other",
      "fqdn": "localhost",
      "gather_subset": [
        "all"
      ],
      "hostname": "tansiv-192-168-1-10",
      "hostnqn": "",
      "interfaces": [
        "ens4",
        "lo",
        "ens3"
      ],
      "is_chroot": false,
      "iscsi_iqn": "",
      "kernel": "4.19.0-16-amd64",
      "kernel_version": "#1 SMP Debian 4.19.181-1 (2021-03-19)",
      "lo": {
        "active": true,
        "device": "lo",
        "ipv4": {
          "address": "127.0.0.1",
          "broadcast": "",
          "netmask": "255.0.0.0",
          "network": "127.0.0.0"
        },
        "ipv6": [
          {
            "address": "::1",
            "prefix": "128",
            "scope": "host"
          }
        ],
        "mtu": 65536,
        "promisc": false,
        "type": "loopback"
      },
      "lsb": {
        "codename": "buster",
        "description": "Debian GNU/Linux 10 (buster)",
        "id": "Debian",
        "major_release": "10",
        "release": "10"
      },
      "lvm": {
        "lvs": {
          "root": {
            "size_g": "98.56",
            "vg": "vm-vg"
          },
          "swap_1": {
            "size_g": "0.96",
            "vg": "vm-vg"
          }
        },
        "pvs": {
          "/dev/sda5": {
            "free_g": "0",
            "size_g": "99.52",
            "vg": "vm-vg"
          }
        },
        "vgs": {
          "vm-vg": {
            "free_g": "0",
            "num_lvs": "2",
            "num_pvs": "1",
            "size_g": "99.52"
          }
        }
      },
      "machine": "x86_64",
      "machine_id": "f6627ef2be954253b631559bd8f6f0ec",
      "memfree_mb": 663,
      "memory_mb": {
        "nocache": {
          "free": 896,
          "used": 91
        },
        "real": {
          "free": 663,
          "total": 987,
          "used": 324
        },
        "swap": {
          "cached": 0,
          "free": 979,
          "total": 979,
          "used": 0
        }
      },
      "memtotal_mb": 987,
      "module_setup": true,
      "mounts": [
        {
          "block_available": 23625719,
          "block_size": 4096,
          "block_total": 25300740,
          "block_used": 1675021,
          "device": "/dev/mapper/vm--vg-root",
          "fstype": "ext4",
          "inode_available": 6400912,
          "inode_total": 6463488,
          "inode_used": 62576,
          "mount": "/",
          "options": "rw,relatime,errors=remount-ro",
          "size_available": 96770945024,
          "size_total": 103631831040,
          "uuid": "dc7ee9cb-dfd5-47ee-af96-76f82c09b0cb"
        },
        {
          "block_available": 408187,
          "block_size": 1024,
          "block_total": 482922,
          "block_used": 74735,
          "device": "/dev/sda1",
          "fstype": "ext2",
          "inode_available": 124589,
          "inode_total": 124928,
          "inode_used": 339,
          "mount": "/boot",
          "options": "rw,relatime",
          "size_available": 417983488,
          "size_total": 494512128,
          "uuid": "4dad1f6c-b937-4490-841c-ea682879dd5f"
        }
      ],
      "nodename": "tansiv-192-168-1-10",
      "os_family": "Debian",
      "pkg_mgr": "apt",
      "proc_cmdline": {
        "BOOT_IMAGE": "/vmlinuz-4.19.0-16-amd64",
        "debian-installer": "en_US.UTF-8",
        "quiet": true,
        "ro": true,
        "root": "/dev/mapper/vm--vg-root"
      },
      "processor": [
        "0",
        "AuthenticAMD",
        "QEMU Virtual CPU version 2.5+"
      ],
      "processor_cores": 1,
      "processor_count": 1,
      "processor_nproc": 1,
      "processor_threads_per_core": 1,
      "processor_vcpus": 1,
      "product_name": "Standard PC (i440FX + PIIX, 1996)",
      "product_serial": "NA",
      "product_uuid": "NA",
      "product_version": "pc-i440fx-5.0",
      "python": {
        "executable": "/usr/bin/python",
        "has_sslcontext": true,
        "type": "CPython",
        "version": {
          "major": 2,
          "micro": 16,
          "minor": 7,
          "releaselevel": "final",
          "serial": 0
        },
        "version_info": [
          2,
          7,
          16,
          "final",
          0
        ]
      },
      "python_version": "2.7.16",
      "real_group_id": 0,
      "real_user_id": 0,
      "selinux": {
        "status": "Missing selinux Python library"
      },
      "selinux_python_present": false,
      "service_mgr": "systemd",
      "ssh_host_key_dsa_public": "AAAAB3NzaC1kc3MAAACBAPYLzYnbWpgkdmOKUIq/97tgOzfX8wv/Je5ijNcjqGms2A3q42aF3LJTMgVt73M6Cd0ISyrfmXWaYbwLVi/7WOabRXaajfIHTrCd5o+BJtFwhOmGBCYNvlTLPD6xVYg1sXioArSZHhJvLTPgIzS6BekI27381naNqsRzwHnW22C5AAAAFQDEu7hRYiMAAzPUW+kZdSDiacaqUwAAAIAegurPdKvt42s1IPnz+HAIBwYyL95U8Jyg4kI8jsimSkf8VjGw41g+uHxW58sL8C+YTB4VS/COPTsnEG9bZfd0IwJmbqWLN/ZsRS8XoxDXX2G9YBa8HMMVuCaoALx5QXLwLxmRYp/dFIIVtl0G4WqfhpQYmSPPfEHtdSoCu9Fp5gAAAIAbowUFEEH5zPhh4OP3jmzHjS7L6vFUxVGkc80FDEQrPkIG7eNmxCIZWAeHR9uwvizhxBGBpSWhbSsPC53nIHN0zkfPbyYv+49YmJgdL6I82Jl1acca8ctxV5ATR1mq3PC8vTSoeZiZxWmvblZVXSEMsM+ac29DG3LTShtkenqvPw==",
      "ssh_host_key_dsa_public_keytype": "ssh-dss",
      "ssh_host_key_ecdsa_public": "AAAAE2VjZHNhLXNoYTItbmlzdHAyNTYAAAAIbmlzdHAyNTYAAABBBExWS3p0OKTf4t95MqoUsfDuwweDOWbCFqCtGDCw6q8fCAtJGo4NLJKkH6vbBg9PVnxyPKYdcJxWvZ+aaNLWBm8=",
      "ssh_host_key_ecdsa_public_keytype": "ecdsa-sha2-nistp256",
      "ssh_host_key_ed25519_public": "AAAAC3NzaC1lZDI1NTE5AAAAILnmGRxKd7x5l2N5Tm9bnAEIe0W34SyLC92RzmLw5Oe3",
      "ssh_host_key_ed25519_public_keytype": "ssh-ed25519",
      "ssh_host_key_rsa_public": "AAAAB3NzaC1yc2EAAAADAQABAAABAQDJzzZxXlI/3Yb4wIL9nu1VnnvKwDcOdXOmKV0I4AxmxHJJpPzu7vQaiDl+q/5730vHqOtld9SuDkVwj2HO531qcVXcVZSydSD75mRctZs+62Cpwr2726KwLZwfeTYWfFtB+82GTySFh7QAb5mj1V8jmQpyHoTKgisK3p8u9ydcimwbGWYSY81eavXxuNhiGOMACbpNkyGB+4airceWc3ZYmPZjmwsuvvLJk4BIPCtW/J4VcppYEMMM1CIm+wWxLxr2oentSxc+152m4zMHw3fTs6RLS3rQcKABYRzO0/08QdfaTmupSRJbwki+ILgXXADZUsufn602F8xJF6bHTsVd",
      "ssh_host_key_rsa_public_keytype": "ssh-rsa",
      "swapfree_mb": 979,
      "swaptotal_mb": 979,
      "system": "Linux",
      "system_capabilities": [
        "cap_chown",
        "cap_dac_override",
        "cap_dac_read_search",
        "cap_fowner",
        "cap_fsetid",
        "cap_kill",
        "cap_setgid",
        "cap_setuid",
        "cap_setpcap",
        "cap_linux_immutable",
        "cap_net_bind_service",
        "cap_net_broadcast",
        "cap_net_admin",
        "cap_net_raw",
        "cap_ipc_lock",
        "cap_ipc_owner",
        "cap_sys_module",
        "cap_sys_rawio",
        "cap_sys_chroot",
        "cap_sys_ptrace",
        "cap_sys_pacct",
        "cap_sys_admin",
        "cap_sys_boot",
        "cap_sys_nice",
        "cap_sys_resource",
        "cap_sys_time",
        "cap_sys_tty_config",
        "cap_mknod",
        "cap_lease",
        "cap_audit_write",
        "cap_audit_control",
        "cap_setfcap",
        "cap_mac_override",
        "cap_mac_admin",
        "cap_syslog",
        "cap_wake_alarm",
        "cap_block_suspend",
        "cap_audit_read+ep"
      ],
      "system_capabilities_enforced": "True",
      "system_vendor": "QEMU",
      "uptime_seconds": 204,
      "user_dir": "/root",
      "user_gecos": "root",
      "user_gid": 0,
      "user_id": "root",
      "user_shell": "/bin/bash",
      "user_uid": 0,
      "userspace_architecture": "x86_64",
      "userspace_bits": "64",
      "virtualization_role": "guest",
      "virtualization_type": "kvm"
    },
    "ansible_fibre_channel_wwn": [],
    "ansible_fips": false,
    "ansible_forks": 100,
    "ansible_form_factor": "Other",
    "ansible_fqdn": "localhost",
    "ansible_hostname": "tansiv-192-168-1-10",
    "ansible_hostnqn": "",
    "ansible_interfaces": [
      "ens4",
      "lo",
      "ens3"
    ],
    "ansible_is_chroot": false,
    "ansible_iscsi_iqn": "",
    "ansible_kernel": "4.19.0-16-amd64",
    "ansible_kernel_version": "#1 SMP Debian 4.19.181-1 (2021-03-19)",
    "ansible_lo": {
      "active": true,
      "device": "lo",
      "ipv4": {
        "address": "127.0.0.1",
        "broadcast": "",
        "netmask": "255.0.0.0",
        "network": "127.0.0.0"
      },
      "ipv6": [
        {
          "address": "::1",
          "prefix": "128",
          "scope": "host"
        }
      ],
      "mtu": 65536,
      "promisc": false,
      "type": "loopback"
    },
    "ansible_local": {},
    "ansible_lsb": {
      "codename": "buster",
      "description": "Debian GNU/Linux 10 (buster)",
      "id": "Debian",
      "major_release": "10",
      "release": "10"
    },
    "ansible_lvm": {
      "lvs": {
        "root": {
          "size_g": "98.56",
          "vg": "vm-vg"
        },
        "swap_1": {
          "size_g": "0.96",
          "vg": "vm-vg"
        }
      },
      "pvs": {
        "/dev/sda5": {
          "free_g": "0",
          "size_g": "99.52",
          "vg": "vm-vg"
        }
      },
      "vgs": {
        "vm-vg": {
          "free_g": "0",
          "num_lvs": "2",
          "num_pvs": "1",
          "size_g": "99.52"
        }
      }
    },
    "ansible_machine": "x86_64",
    "ansible_machine_id": "f6627ef2be954253b631559bd8f6f0ec",
    "ansible_memfree_mb": 663,
    "ansible_memory_mb": {
      "nocache": {
        "free": 896,
        "used": 91
      },
      "real": {
        "free": 663,
        "total": 987,
        "used": 324
      },
      "swap": {
        "cached": 0,
        "free": 979,
        "total": 979,
        "used": 0
      }
    },
    "ansible_memtotal_mb": 987,
    "ansible_mounts": [
      {
        "block_available": 23625719,
        "block_size": 4096,
        "block_total": 25300740,
        "block_used": 1675021,
        "device": "/dev/mapper/vm--vg-root",
        "fstype": "ext4",
        "inode_available": 6400912,
        "inode_total": 6463488,
        "inode_used": 62576,
        "mount": "/",
        "options": "rw,relatime,errors=remount-ro",
        "size_available": 96770945024,
        "size_total": 103631831040,
        "uuid": "dc7ee9cb-dfd5-47ee-af96-76f82c09b0cb"
      },
      {
        "block_available": 408187,
        "block_size": 1024,
        "block_total": 482922,
        "block_used": 74735,
        "device": "/dev/sda1",
        "fstype": "ext2",
        "inode_available": 124589,
        "inode_total": 124928,
        "inode_used": 339,
        "mount": "/boot",
        "options": "rw,relatime",
        "size_available": 417983488,
        "size_total": 494512128,
        "uuid": "4dad1f6c-b937-4490-841c-ea682879dd5f"
      }
    ],
    "ansible_nodename": "tansiv-192-168-1-10",
    "ansible_os_family": "Debian",
    "ansible_pkg_mgr": "apt",
    "ansible_playbook_python": "/home/lorilling/tansiv-xps/2021-07-05_TS-vs-NTS-network-behavior/venv/bin/python3",
    "ansible_proc_cmdline": {
      "BOOT_IMAGE": "/vmlinuz-4.19.0-16-amd64",
      "debian-installer": "en_US.UTF-8",
      "quiet": true,
      "ro": true,
      "root": "/dev/mapper/vm--vg-root"
    },
    "ansible_processor": [
      "0",
      "AuthenticAMD",
      "QEMU Virtual CPU version 2.5+"
    ],
    "ansible_processor_cores": 1,
    "ansible_processor_count": 1,
    "ansible_processor_nproc": 1,
    "ansible_processor_threads_per_core": 1,
    "ansible_processor_vcpus": 1,
    "ansible_product_name": "Standard PC (i440FX + PIIX, 1996)",
    "ansible_product_serial": "NA",
    "ansible_product_uuid": "NA",
    "ansible_product_version": "pc-i440fx-5.0",
    "ansible_python": {
      "executable": "/usr/bin/python",
      "has_sslcontext": true,
      "type": "CPython",
      "version": {
        "major": 2,
        "micro": 16,
        "minor": 7,
        "releaselevel": "final",
        "serial": 0
      },
      "version_info": [
        2,
        7,
        16,
        "final",
        0
      ]
    },
    "ansible_python_version": "2.7.16",
    "ansible_real_group_id": 0,
    "ansible_real_user_id": 0,
    "ansible_run_tags": [],
    "ansible_selinux": {
      "status": "Missing selinux Python library"
    },
    "ansible_selinux_python_present": false,
    "ansible_service_mgr": "systemd",
    "ansible_ssh_common_args": "-o StrictHostKeyChecking=no -o UserKnownHostsFile=/dev/null",
    "ansible_ssh_host_key_dsa_public": "AAAAB3NzaC1kc3MAAACBAPYLzYnbWpgkdmOKUIq/97tgOzfX8wv/Je5ijNcjqGms2A3q42aF3LJTMgVt73M6Cd0ISyrfmXWaYbwLVi/7WOabRXaajfIHTrCd5o+BJtFwhOmGBCYNvlTLPD6xVYg1sXioArSZHhJvLTPgIzS6BekI27381naNqsRzwHnW22C5AAAAFQDEu7hRYiMAAzPUW+kZdSDiacaqUwAAAIAegurPdKvt42s1IPnz+HAIBwYyL95U8Jyg4kI8jsimSkf8VjGw41g+uHxW58sL8C+YTB4VS/COPTsnEG9bZfd0IwJmbqWLN/ZsRS8XoxDXX2G9YBa8HMMVuCaoALx5QXLwLxmRYp/dFIIVtl0G4WqfhpQYmSPPfEHtdSoCu9Fp5gAAAIAbowUFEEH5zPhh4OP3jmzHjS7L6vFUxVGkc80FDEQrPkIG7eNmxCIZWAeHR9uwvizhxBGBpSWhbSsPC53nIHN0zkfPbyYv+49YmJgdL6I82Jl1acca8ctxV5ATR1mq3PC8vTSoeZiZxWmvblZVXSEMsM+ac29DG3LTShtkenqvPw==",
    "ansible_ssh_host_key_dsa_public_keytype": "ssh-dss",
    "ansible_ssh_host_key_ecdsa_public": "AAAAE2VjZHNhLXNoYTItbmlzdHAyNTYAAAAIbmlzdHAyNTYAAABBBExWS3p0OKTf4t95MqoUsfDuwweDOWbCFqCtGDCw6q8fCAtJGo4NLJKkH6vbBg9PVnxyPKYdcJxWvZ+aaNLWBm8=",
    "ansible_ssh_host_key_ecdsa_public_keytype": "ecdsa-sha2-nistp256",
    "ansible_ssh_host_key_ed25519_public": "AAAAC3NzaC1lZDI1NTE5AAAAILnmGRxKd7x5l2N5Tm9bnAEIe0W34SyLC92RzmLw5Oe3",
    "ansible_ssh_host_key_ed25519_public_keytype": "ssh-ed25519",
    "ansible_ssh_host_key_rsa_public": "AAAAB3NzaC1yc2EAAAADAQABAAABAQDJzzZxXlI/3Yb4wIL9nu1VnnvKwDcOdXOmKV0I4AxmxHJJpPzu7vQaiDl+q/5730vHqOtld9SuDkVwj2HO531qcVXcVZSydSD75mRctZs+62Cpwr2726KwLZwfeTYWfFtB+82GTySFh7QAb5mj1V8jmQpyHoTKgisK3p8u9ydcimwbGWYSY81eavXxuNhiGOMACbpNkyGB+4airceWc3ZYmPZjmwsuvvLJk4BIPCtW/J4VcppYEMMM1CIm+wWxLxr2oentSxc+152m4zMHw3fTs6RLS3rQcKABYRzO0/08QdfaTmupSRJbwki+ILgXXADZUsufn602F8xJF6bHTsVd",
    "ansible_ssh_host_key_rsa_public_keytype": "ssh-rsa",
    "ansible_ssh_user": "root",
    "ansible_swapfree_mb": 979,
    "ansible_swaptotal_mb": 979,
    "ansible_system": "Linux",
    "ansible_system_capabilities": [
      "cap_chown",
      "cap_dac_override",
      "cap_dac_read_search",
      "cap_fowner",
      "cap_fsetid",
      "cap_kill",
      "cap_setgid",
      "cap_setuid",
      "cap_setpcap",
      "cap_linux_immutable",
      "cap_net_bind_service",
      "cap_net_broadcast",
      "cap_net_admin",
      "cap_net_raw",
      "cap_ipc_lock",
      "cap_ipc_owner",
      "cap_sys_module",
      "cap_sys_rawio",
      "cap_sys_chroot",
      "cap_sys_ptrace",
      "cap_sys_pacct",
      "cap_sys_admin",
      "cap_sys_boot",
      "cap_sys_nice",
      "cap_sys_resource",
      "cap_sys_time",
      "cap_sys_tty_config",
      "cap_mknod",
      "cap_lease",
      "cap_audit_write",
      "cap_audit_control",
      "cap_setfcap",
      "cap_mac_override",
      "cap_mac_admin",
      "cap_syslog",
      "cap_wake_alarm",
      "cap_block_suspend",
      "cap_audit_read+ep"
    ],
    "ansible_system_capabilities_enforced": "True",
    "ansible_system_vendor": "QEMU",
    "ansible_uptime_seconds": 204,
    "ansible_user_dir": "/root",
    "ansible_user_gecos": "root",
    "ansible_user_gid": 0,
    "ansible_user_id": "root",
    "ansible_user_shell": "/bin/bash",
    "ansible_user_uid": 0,
    "ansible_userspace_architecture": "x86_64",
    "ansible_userspace_bits": "64",
    "ansible_verbosity": 2,
    "ansible_version": "Unknown",
    "ansible_virtualization_role": "guest",
    "ansible_virtualization_type": "kvm",
    "discovered_interpreter_python": "/usr/bin/python",
    "enos_action": "check_network",
    "facts_file": "/home/lorilling/tansiv-xps/2021-07-05_TS-vs-NTS-network-behavior/results/nts_lat_2/_tmp_enos_/facts.json",
    "gather_subset": [
      "all"
    ],
    "group_names": [
      "ungrouped"
    ],
    "groups": {
      "all": [
        "mantap10",
        "mantap11"
      ],
      "ungrouped": [
        "mantap10",
        "mantap11"
      ]
    },
    "inventory_dir": null,
    "inventory_file": null,
    "inventory_hostname": "mantap10",
    "inventory_hostname_short": "mantap10",
    "module_setup": true,
    "omit": "__omit_place_holder__8a427be8c5d2719a9550726e3bb107041af497dd",
    "playbook_dir": "/home/lorilling/tansiv-xps/2021-07-05_TS-vs-NTS-network-behavior/venv/lib/python3.7/site-packages/enoslib/ansible",
    "tansiv_address": "192.168.1.10",
    "tansiv_alias": "tantap10"
  }
,"mantap11": 
  {
    "ansible_all_ipv4_addresses": [
      "10.0.0.11",
      "192.168.1.11"
    ],
    "ansible_all_ipv6_addresses": [
      "fe80::5652:feff:fef0:d0b",
      "fe80::ca:feff:fef0:d0b"
    ],
    "ansible_apparmor": {
      "status": "enabled"
    },
    "ansible_architecture": "x86_64",
    "ansible_bios_date": "04/01/2014",
    "ansible_bios_vendor": "SeaBIOS",
    "ansible_bios_version": "rel-1.13.0-0-gf21b5a4aeb02-prebuilt.qemu.org",
    "ansible_board_asset_tag": "NA",
    "ansible_board_name": "NA",
    "ansible_board_serial": "NA",
    "ansible_board_vendor": "NA",
    "ansible_board_version": "NA",
    "ansible_chassis_asset_tag": "NA",
    "ansible_chassis_serial": "NA",
    "ansible_chassis_vendor": "QEMU",
    "ansible_chassis_version": "pc-i440fx-5.0",
    "ansible_check_mode": false,
    "ansible_cmdline": {
      "BOOT_IMAGE": "/vmlinuz-4.19.0-16-amd64",
      "debian-installer": "en_US.UTF-8",
      "quiet": true,
      "ro": true,
      "root": "/dev/mapper/vm--vg-root"
    },
    "ansible_config_file": null,
    "ansible_date_time": {
      "date": "2021-07-06",
      "day": "06",
      "epoch": "1625552216",
      "hour": "06",
      "iso8601": "2021-07-06T06:16:56Z",
      "iso8601_basic": "20210706T061656180797",
      "iso8601_basic_short": "20210706T061656",
      "iso8601_micro": "2021-07-06T06:16:56.180797Z",
      "minute": "16",
      "month": "07",
      "second": "56",
      "time": "06:16:56",
      "tz": "UTC",
      "tz_offset": "+0000",
      "weekday": "Tuesday",
      "weekday_number": "2",
      "weeknumber": "27",
      "year": "2021"
    },
    "ansible_default_ipv4": {
      "address": "192.168.1.11",
      "alias": "ens3",
      "broadcast": "192.168.1.255",
      "gateway": "192.168.1.1",
      "interface": "ens3",
      "macaddress": "02:ca:fe:f0:0d:0b",
      "mtu": 1500,
      "netmask": "255.255.255.0",
      "network": "192.168.1.0",
      "type": "ether"
    },
    "ansible_default_ipv6": {},
    "ansible_device_links": {
      "ids": {
        "dm-0": [
          "dm-name-vm--vg-root",
          "dm-uuid-LVM-bbvikBPVU1Uk7qW1c8FsZ3x7dMiEZLKT2K06sAE30aGnInEcVP2RQOXNiy9e9PeV"
        ],
        "dm-1": [
          "dm-name-vm--vg-swap_1",
          "dm-uuid-LVM-bbvikBPVU1Uk7qW1c8FsZ3x7dMiEZLKTFeebyKpkai0CqqiLiVNsVKy2BnOV8sgn"
        ],
        "sda": [
          "ata-QEMU_HARDDISK_QM00001"
        ],
        "sda1": [
          "ata-QEMU_HARDDISK_QM00001-part1"
        ],
        "sda2": [
          "ata-QEMU_HARDDISK_QM00001-part2"
        ],
        "sda5": [
          "ata-QEMU_HARDDISK_QM00001-part5",
          "lvm-pv-uuid-DGDS3L-Y5xq-QXWL-twvN-BwVW-NON7-BtDBYc"
        ],
        "sr0": [
          "ata-QEMU_DVD-ROM_QM00003"
        ]
      },
      "labels": {
        "sr0": [
          "cidata"
        ]
      },
      "masters": {
        "sda5": [
          "dm-0",
          "dm-1"
        ]
      },
      "uuids": {
        "dm-0": [
          "dc7ee9cb-dfd5-47ee-af96-76f82c09b0cb"
        ],
        "dm-1": [
          "b85cc7d2-84f1-4150-b34a-848ce2037dee"
        ],
        "sda1": [
          "4dad1f6c-b937-4490-841c-ea682879dd5f"
        ],
        "sr0": [
          "2021-07-06-06-13-08-00"
        ]
      }
    },
    "ansible_devices": {
      "dm-0": {
        "holders": [],
        "host": "",
        "links": {
          "ids": [
            "dm-name-vm--vg-root",
            "dm-uuid-LVM-bbvikBPVU1Uk7qW1c8FsZ3x7dMiEZLKT2K06sAE30aGnInEcVP2RQOXNiy9e9PeV"
          ],
          "labels": [],
          "masters": [],
          "uuids": [
            "dc7ee9cb-dfd5-47ee-af96-76f82c09b0cb"
          ]
        },
        "model": null,
        "partitions": {},
        "removable": "0",
        "rotational": "1",
        "sas_address": null,
        "sas_device_handle": null,
        "scheduler_mode": "",
        "sectors": "206700544",
        "sectorsize": "512",
        "size": "98.56 GB",
        "support_discard": "512",
        "vendor": null,
        "virtual": 1
      },
      "dm-1": {
        "holders": [],
        "host": "",
        "links": {
          "ids": [
            "dm-name-vm--vg-swap_1",
            "dm-uuid-LVM-bbvikBPVU1Uk7qW1c8FsZ3x7dMiEZLKTFeebyKpkai0CqqiLiVNsVKy2BnOV8sgn"
          ],
          "labels": [],
          "masters": [],
          "uuids": [
            "b85cc7d2-84f1-4150-b34a-848ce2037dee"
          ]
        },
        "model": null,
        "partitions": {},
        "removable": "0",
        "rotational": "1",
        "sas_address": null,
        "sas_device_handle": null,
        "scheduler_mode": "",
        "sectors": "2007040",
        "sectorsize": "512",
        "size": "980.00 MB",
        "support_discard": "512",
        "vendor": null,
        "virtual": 1
      },
      "fd0": {
        "holders": [],
        "host": "",
        "links": {
          "ids": [],
          "labels": [],
          "masters": [],
          "uuids": []
        },
        "model": null,
        "partitions": {},
        "removable": "1",
        "rotational": "1",
        "sas_address": null,
        "sas_device_handle": null,
        "scheduler_mode": "cfq",
        "sectors": "8",
        "sectorsize": "512",
        "size": "4.00 KB",
        "support_discard": "0",
        "vendor": null,
        "virtual": 1
      },
      "sda": {
        "holders": [],
        "host": "IDE interface: Intel Corporation 82371SB PIIX3 IDE [Natoma/Triton II]",
        "links": {
          "ids": [
            "ata-QEMU_HARDDISK_QM00001"
          ],
          "labels": [],
          "masters": [],
          "uuids": []
        },
        "model": "QEMU HARDDISK",
        "partitions": {
          "sda1": {
            "holders": [],
            "links": {
              "ids": [
                "ata-QEMU_HARDDISK_QM00001-part1"
              ],
              "labels": [],
              "masters": [],
              "uuids": [
                "4dad1f6c-b937-4490-841c-ea682879dd5f"
              ]
            },
            "sectors": "997376",
            "sectorsize": 512,
            "size": "487.00 MB",
            "start": "2048",
            "uuid": "4dad1f6c-b937-4490-841c-ea682879dd5f"
          },
          "sda2": {
            "holders": [],
            "links": {
              "ids": [
                "ata-QEMU_HARDDISK_QM00001-part2"
              ],
              "labels": [],
              "masters": [],
              "uuids": []
            },
            "sectors": "2",
            "sectorsize": 512,
            "size": "1.00 KB",
            "start": "1001470",
            "uuid": null
          },
          "sda5": {
            "holders": [
              "vm--vg-swap_1",
              "vm--vg-root"
            ],
            "links": {
              "ids": [
                "ata-QEMU_HARDDISK_QM00001-part5",
                "lvm-pv-uuid-DGDS3L-Y5xq-QXWL-twvN-BwVW-NON7-BtDBYc"
              ],
              "labels": [],
              "masters": [
                "dm-0",
                "dm-1"
              ],
              "uuids": []
            },
            "sectors": "208711680",
            "sectorsize": 512,
            "size": "99.52 GB",
            "start": "1001472",
            "uuid": null
          }
        },
        "removable": "0",
        "rotational": "1",
        "sas_address": null,
        "sas_device_handle": null,
        "scheduler_mode": "mq-deadline",
        "sectors": "209715200",
        "sectorsize": "512",
        "size": "100.00 GB",
        "support_discard": "512",
        "vendor": "ATA",
        "virtual": 1
      },
      "sr0": {
        "holders": [],
        "host": "IDE interface: Intel Corporation 82371SB PIIX3 IDE [Natoma/Triton II]",
        "links": {
          "ids": [
            "ata-QEMU_DVD-ROM_QM00003"
          ],
          "labels": [
            "cidata"
          ],
          "masters": [],
          "uuids": [
            "2021-07-06-06-13-08-00"
          ]
        },
        "model": "QEMU DVD-ROM",
        "partitions": {},
        "removable": "1",
        "rotational": "1",
        "sas_address": null,
        "sas_device_handle": null,
        "scheduler_mode": "mq-deadline",
        "sectors": "780",
        "sectorsize": "2048",
        "size": "390.00 KB",
        "support_discard": "0",
        "vendor": "QEMU",
        "virtual": 1
      }
    },
    "ansible_distribution": "Debian",
    "ansible_distribution_file_parsed": true,
    "ansible_distribution_file_path": "/etc/os-release",
    "ansible_distribution_file_variety": "Debian",
    "ansible_distribution_major_version": "10",
    "ansible_distribution_release": "buster",
    "ansible_distribution_version": "10",
    "ansible_dns": {
      "nameservers": [
        "10.0.2.3"
      ]
    },
    "ansible_domain": "",
    "ansible_effective_group_id": 0,
    "ansible_effective_user_id": 0,
    "ansible_ens3": {
      "active": true,
      "device": "ens3",
      "ipv4": {
        "address": "192.168.1.11",
        "broadcast": "192.168.1.255",
        "netmask": "255.255.255.0",
        "network": "192.168.1.0"
      },
      "ipv6": [
        {
          "address": "fe80::ca:feff:fef0:d0b",
          "prefix": "64",
          "scope": "link"
        }
      ],
      "macaddress": "02:ca:fe:f0:0d:0b",
      "module": "e1000",
      "mtu": 1500,
      "pciid": "0000:00:03.0",
      "promisc": false,
      "speed": 1000,
      "type": "ether"
    },
    "ansible_ens4": {
      "active": true,
      "device": "ens4",
      "ipv4": {
        "address": "10.0.0.11",
        "broadcast": "10.0.0.255",
        "netmask": "255.255.255.0",
        "network": "10.0.0.0"
      },
      "ipv6": [
        {
          "address": "fe80::5652:feff:fef0:d0b",
          "prefix": "64",
          "scope": "link"
        }
      ],
      "macaddress": "54:52:fe:f0:0d:0b",
      "module": "e1000",
      "mtu": 1500,
      "pciid": "0000:00:04.0",
      "promisc": false,
      "speed": 1000,
      "type": "ether"
    },
    "ansible_env": {
      "DBUS_SESSION_BUS_ADDRESS": "unix:path=/run/user/0/bus",
      "HOME": "/root",
      "LANG": "en_US.UTF-8",
      "LC_ALL": "en_US.UTF-8",
      "LOGNAME": "root",
      "MAIL": "/var/mail/root",
      "PATH": "/usr/local/sbin:/usr/local/bin:/usr/sbin:/usr/bin:/sbin:/bin",
      "PWD": "/root",
      "SHELL": "/bin/bash",
      "SHLVL": "0",
      "SSH_CLIENT": "10.0.0.1 40026 22",
      "SSH_CONNECTION": "10.0.0.1 40026 10.0.0.11 22",
      "SSH_TTY": "/dev/pts/0",
      "TERM": "unknown",
      "USER": "root",
      "XDG_RUNTIME_DIR": "/run/user/0",
      "XDG_SESSION_CLASS": "user",
      "XDG_SESSION_ID": "7",
      "XDG_SESSION_TYPE": "tty",
      "_": "/bin/sh"
    },
    "ansible_facts": {
      "_ansible_facts_gathered": true,
      "all_ipv4_addresses": [
        "10.0.0.11",
        "192.168.1.11"
      ],
      "all_ipv6_addresses": [
        "fe80::5652:feff:fef0:d0b",
        "fe80::ca:feff:fef0:d0b"
      ],
      "ansible_local": {},
      "apparmor": {
        "status": "enabled"
      },
      "architecture": "x86_64",
      "bios_date": "04/01/2014",
      "bios_vendor": "SeaBIOS",
      "bios_version": "rel-1.13.0-0-gf21b5a4aeb02-prebuilt.qemu.org",
      "board_asset_tag": "NA",
      "board_name": "NA",
      "board_serial": "NA",
      "board_vendor": "NA",
      "board_version": "NA",
      "chassis_asset_tag": "NA",
      "chassis_serial": "NA",
      "chassis_vendor": "QEMU",
      "chassis_version": "pc-i440fx-5.0",
      "cmdline": {
        "BOOT_IMAGE": "/vmlinuz-4.19.0-16-amd64",
        "debian-installer": "en_US.UTF-8",
        "quiet": true,
        "ro": true,
        "root": "/dev/mapper/vm--vg-root"
      },
      "date_time": {
        "date": "2021-07-06",
        "day": "06",
        "epoch": "1625552216",
        "hour": "06",
        "iso8601": "2021-07-06T06:16:56Z",
        "iso8601_basic": "20210706T061656180797",
        "iso8601_basic_short": "20210706T061656",
        "iso8601_micro": "2021-07-06T06:16:56.180797Z",
        "minute": "16",
        "month": "07",
        "second": "56",
        "time": "06:16:56",
        "tz": "UTC",
        "tz_offset": "+0000",
        "weekday": "Tuesday",
        "weekday_number": "2",
        "weeknumber": "27",
        "year": "2021"
      },
      "default_ipv4": {
        "address": "192.168.1.11",
        "alias": "ens3",
        "broadcast": "192.168.1.255",
        "gateway": "192.168.1.1",
        "interface": "ens3",
        "macaddress": "02:ca:fe:f0:0d:0b",
        "mtu": 1500,
        "netmask": "255.255.255.0",
        "network": "192.168.1.0",
        "type": "ether"
      },
      "default_ipv6": {},
      "device_links": {
        "ids": {
          "dm-0": [
            "dm-name-vm--vg-root",
            "dm-uuid-LVM-bbvikBPVU1Uk7qW1c8FsZ3x7dMiEZLKT2K06sAE30aGnInEcVP2RQOXNiy9e9PeV"
          ],
          "dm-1": [
            "dm-name-vm--vg-swap_1",
            "dm-uuid-LVM-bbvikBPVU1Uk7qW1c8FsZ3x7dMiEZLKTFeebyKpkai0CqqiLiVNsVKy2BnOV8sgn"
          ],
          "sda": [
            "ata-QEMU_HARDDISK_QM00001"
          ],
          "sda1": [
            "ata-QEMU_HARDDISK_QM00001-part1"
          ],
          "sda2": [
            "ata-QEMU_HARDDISK_QM00001-part2"
          ],
          "sda5": [
            "ata-QEMU_HARDDISK_QM00001-part5",
            "lvm-pv-uuid-DGDS3L-Y5xq-QXWL-twvN-BwVW-NON7-BtDBYc"
          ],
          "sr0": [
            "ata-QEMU_DVD-ROM_QM00003"
          ]
        },
        "labels": {
          "sr0": [
            "cidata"
          ]
        },
        "masters": {
          "sda5": [
            "dm-0",
            "dm-1"
          ]
        },
        "uuids": {
          "dm-0": [
            "dc7ee9cb-dfd5-47ee-af96-76f82c09b0cb"
          ],
          "dm-1": [
            "b85cc7d2-84f1-4150-b34a-848ce2037dee"
          ],
          "sda1": [
            "4dad1f6c-b937-4490-841c-ea682879dd5f"
          ],
          "sr0": [
            "2021-07-06-06-13-08-00"
          ]
        }
      },
      "devices": {
        "dm-0": {
          "holders": [],
          "host": "",
          "links": {
            "ids": [
              "dm-name-vm--vg-root",
              "dm-uuid-LVM-bbvikBPVU1Uk7qW1c8FsZ3x7dMiEZLKT2K06sAE30aGnInEcVP2RQOXNiy9e9PeV"
            ],
            "labels": [],
            "masters": [],
            "uuids": [
              "dc7ee9cb-dfd5-47ee-af96-76f82c09b0cb"
            ]
          },
          "model": null,
          "partitions": {},
          "removable": "0",
          "rotational": "1",
          "sas_address": null,
          "sas_device_handle": null,
          "scheduler_mode": "",
          "sectors": "206700544",
          "sectorsize": "512",
          "size": "98.56 GB",
          "support_discard": "512",
          "vendor": null,
          "virtual": 1
        },
        "dm-1": {
          "holders": [],
          "host": "",
          "links": {
            "ids": [
              "dm-name-vm--vg-swap_1",
              "dm-uuid-LVM-bbvikBPVU1Uk7qW1c8FsZ3x7dMiEZLKTFeebyKpkai0CqqiLiVNsVKy2BnOV8sgn"
            ],
            "labels": [],
            "masters": [],
            "uuids": [
              "b85cc7d2-84f1-4150-b34a-848ce2037dee"
            ]
          },
          "model": null,
          "partitions": {},
          "removable": "0",
          "rotational": "1",
          "sas_address": null,
          "sas_device_handle": null,
          "scheduler_mode": "",
          "sectors": "2007040",
          "sectorsize": "512",
          "size": "980.00 MB",
          "support_discard": "512",
          "vendor": null,
          "virtual": 1
        },
        "fd0": {
          "holders": [],
          "host": "",
          "links": {
            "ids": [],
            "labels": [],
            "masters": [],
            "uuids": []
          },
          "model": null,
          "partitions": {},
          "removable": "1",
          "rotational": "1",
          "sas_address": null,
          "sas_device_handle": null,
          "scheduler_mode": "cfq",
          "sectors": "8",
          "sectorsize": "512",
          "size": "4.00 KB",
          "support_discard": "0",
          "vendor": null,
          "virtual": 1
        },
        "sda": {
          "holders": [],
          "host": "IDE interface: Intel Corporation 82371SB PIIX3 IDE [Natoma/Triton II]",
          "links": {
            "ids": [
              "ata-QEMU_HARDDISK_QM00001"
            ],
            "labels": [],
            "masters": [],
            "uuids": []
          },
          "model": "QEMU HARDDISK",
          "partitions": {
            "sda1": {
              "holders": [],
              "links": {
                "ids": [
                  "ata-QEMU_HARDDISK_QM00001-part1"
                ],
                "labels": [],
                "masters": [],
                "uuids": [
                  "4dad1f6c-b937-4490-841c-ea682879dd5f"
                ]
              },
              "sectors": "997376",
              "sectorsize": 512,
              "size": "487.00 MB",
              "start": "2048",
              "uuid": "4dad1f6c-b937-4490-841c-ea682879dd5f"
            },
            "sda2": {
              "holders": [],
              "links": {
                "ids": [
                  "ata-QEMU_HARDDISK_QM00001-part2"
                ],
                "labels": [],
                "masters": [],
                "uuids": []
              },
              "sectors": "2",
              "sectorsize": 512,
              "size": "1.00 KB",
              "start": "1001470",
              "uuid": null
            },
            "sda5": {
              "holders": [
                "vm--vg-swap_1",
                "vm--vg-root"
              ],
              "links": {
                "ids": [
                  "ata-QEMU_HARDDISK_QM00001-part5",
                  "lvm-pv-uuid-DGDS3L-Y5xq-QXWL-twvN-BwVW-NON7-BtDBYc"
                ],
                "labels": [],
                "masters": [
                  "dm-0",
                  "dm-1"
                ],
                "uuids": []
              },
              "sectors": "208711680",
              "sectorsize": 512,
              "size": "99.52 GB",
              "start": "1001472",
              "uuid": null
            }
          },
          "removable": "0",
          "rotational": "1",
          "sas_address": null,
          "sas_device_handle": null,
          "scheduler_mode": "mq-deadline",
          "sectors": "209715200",
          "sectorsize": "512",
          "size": "100.00 GB",
          "support_discard": "512",
          "vendor": "ATA",
          "virtual": 1
        },
        "sr0": {
          "holders": [],
          "host": "IDE interface: Intel Corporation 82371SB PIIX3 IDE [Natoma/Triton II]",
          "links": {
            "ids": [
              "ata-QEMU_DVD-ROM_QM00003"
            ],
            "labels": [
              "cidata"
            ],
            "masters": [],
            "uuids": [
              "2021-07-06-06-13-08-00"
            ]
          },
          "model": "QEMU DVD-ROM",
          "partitions": {},
          "removable": "1",
          "rotational": "1",
          "sas_address": null,
          "sas_device_handle": null,
          "scheduler_mode": "mq-deadline",
          "sectors": "780",
          "sectorsize": "2048",
          "size": "390.00 KB",
          "support_discard": "0",
          "vendor": "QEMU",
          "virtual": 1
        }
      },
      "discovered_interpreter_python": "/usr/bin/python",
      "distribution": "Debian",
      "distribution_file_parsed": true,
      "distribution_file_path": "/etc/os-release",
      "distribution_file_variety": "Debian",
      "distribution_major_version": "10",
      "distribution_release": "buster",
      "distribution_version": "10",
      "dns": {
        "nameservers": [
          "10.0.2.3"
        ]
      },
      "domain": "",
      "effective_group_id": 0,
      "effective_user_id": 0,
      "ens3": {
        "active": true,
        "device": "ens3",
        "ipv4": {
          "address": "192.168.1.11",
          "broadcast": "192.168.1.255",
          "netmask": "255.255.255.0",
          "network": "192.168.1.0"
        },
        "ipv6": [
          {
            "address": "fe80::ca:feff:fef0:d0b",
            "prefix": "64",
            "scope": "link"
          }
        ],
        "macaddress": "02:ca:fe:f0:0d:0b",
        "module": "e1000",
        "mtu": 1500,
        "pciid": "0000:00:03.0",
        "promisc": false,
        "speed": 1000,
        "type": "ether"
      },
      "ens4": {
        "active": true,
        "device": "ens4",
        "ipv4": {
          "address": "10.0.0.11",
          "broadcast": "10.0.0.255",
          "netmask": "255.255.255.0",
          "network": "10.0.0.0"
        },
        "ipv6": [
          {
            "address": "fe80::5652:feff:fef0:d0b",
            "prefix": "64",
            "scope": "link"
          }
        ],
        "macaddress": "54:52:fe:f0:0d:0b",
        "module": "e1000",
        "mtu": 1500,
        "pciid": "0000:00:04.0",
        "promisc": false,
        "speed": 1000,
        "type": "ether"
      },
      "env": {
        "DBUS_SESSION_BUS_ADDRESS": "unix:path=/run/user/0/bus",
        "HOME": "/root",
        "LANG": "en_US.UTF-8",
        "LC_ALL": "en_US.UTF-8",
        "LOGNAME": "root",
        "MAIL": "/var/mail/root",
        "PATH": "/usr/local/sbin:/usr/local/bin:/usr/sbin:/usr/bin:/sbin:/bin",
        "PWD": "/root",
        "SHELL": "/bin/bash",
        "SHLVL": "0",
        "SSH_CLIENT": "10.0.0.1 40026 22",
        "SSH_CONNECTION": "10.0.0.1 40026 10.0.0.11 22",
        "SSH_TTY": "/dev/pts/0",
        "TERM": "unknown",
        "USER": "root",
        "XDG_RUNTIME_DIR": "/run/user/0",
        "XDG_SESSION_CLASS": "user",
        "XDG_SESSION_ID": "7",
        "XDG_SESSION_TYPE": "tty",
        "_": "/bin/sh"
      },
      "fibre_channel_wwn": [],
      "fips": false,
      "form_factor": "Other",
      "fqdn": "localhost",
      "gather_subset": [
        "all"
      ],
      "hostname": "tansiv-192-168-1-11",
      "hostnqn": "",
      "interfaces": [
        "ens4",
        "lo",
        "ens3"
      ],
      "is_chroot": false,
      "iscsi_iqn": "",
      "kernel": "4.19.0-16-amd64",
      "kernel_version": "#1 SMP Debian 4.19.181-1 (2021-03-19)",
      "lo": {
        "active": true,
        "device": "lo",
        "ipv4": {
          "address": "127.0.0.1",
          "broadcast": "",
          "netmask": "255.0.0.0",
          "network": "127.0.0.0"
        },
        "ipv6": [
          {
            "address": "::1",
            "prefix": "128",
            "scope": "host"
          }
        ],
        "mtu": 65536,
        "promisc": false,
        "type": "loopback"
      },
      "lsb": {
        "codename": "buster",
        "description": "Debian GNU/Linux 10 (buster)",
        "id": "Debian",
        "major_release": "10",
        "release": "10"
      },
      "lvm": {
        "lvs": {
          "root": {
            "size_g": "98.56",
            "vg": "vm-vg"
          },
          "swap_1": {
            "size_g": "0.96",
            "vg": "vm-vg"
          }
        },
        "pvs": {
          "/dev/sda5": {
            "free_g": "0",
            "size_g": "99.52",
            "vg": "vm-vg"
          }
        },
        "vgs": {
          "vm-vg": {
            "free_g": "0",
            "num_lvs": "2",
            "num_pvs": "1",
            "size_g": "99.52"
          }
        }
      },
      "machine": "x86_64",
      "machine_id": "f6627ef2be954253b631559bd8f6f0ec",
      "memfree_mb": 663,
      "memory_mb": {
        "nocache": {
          "free": 896,
          "used": 91
        },
        "real": {
          "free": 663,
          "total": 987,
          "used": 324
        },
        "swap": {
          "cached": 0,
          "free": 979,
          "total": 979,
          "used": 0
        }
      },
      "memtotal_mb": 987,
      "module_setup": true,
      "mounts": [
        {
          "block_available": 23625719,
          "block_size": 4096,
          "block_total": 25300740,
          "block_used": 1675021,
          "device": "/dev/mapper/vm--vg-root",
          "fstype": "ext4",
          "inode_available": 6400912,
          "inode_total": 6463488,
          "inode_used": 62576,
          "mount": "/",
          "options": "rw,relatime,errors=remount-ro",
          "size_available": 96770945024,
          "size_total": 103631831040,
          "uuid": "dc7ee9cb-dfd5-47ee-af96-76f82c09b0cb"
        },
        {
          "block_available": 408187,
          "block_size": 1024,
          "block_total": 482922,
          "block_used": 74735,
          "device": "/dev/sda1",
          "fstype": "ext2",
          "inode_available": 124589,
          "inode_total": 124928,
          "inode_used": 339,
          "mount": "/boot",
          "options": "rw,relatime",
          "size_available": 417983488,
          "size_total": 494512128,
          "uuid": "4dad1f6c-b937-4490-841c-ea682879dd5f"
        }
      ],
      "nodename": "tansiv-192-168-1-11",
      "os_family": "Debian",
      "pkg_mgr": "apt",
      "proc_cmdline": {
        "BOOT_IMAGE": "/vmlinuz-4.19.0-16-amd64",
        "debian-installer": "en_US.UTF-8",
        "quiet": true,
        "ro": true,
        "root": "/dev/mapper/vm--vg-root"
      },
      "processor": [
        "0",
        "AuthenticAMD",
        "QEMU Virtual CPU version 2.5+"
      ],
      "processor_cores": 1,
      "processor_count": 1,
      "processor_nproc": 1,
      "processor_threads_per_core": 1,
      "processor_vcpus": 1,
      "product_name": "Standard PC (i440FX + PIIX, 1996)",
      "product_serial": "NA",
      "product_uuid": "NA",
      "product_version": "pc-i440fx-5.0",
      "python": {
        "executable": "/usr/bin/python",
        "has_sslcontext": true,
        "type": "CPython",
        "version": {
          "major": 2,
          "micro": 16,
          "minor": 7,
          "releaselevel": "final",
          "serial": 0
        },
        "version_info": [
          2,
          7,
          16,
          "final",
          0
        ]
      },
      "python_version": "2.7.16",
      "real_group_id": 0,
      "real_user_id": 0,
      "selinux": {
        "status": "Missing selinux Python library"
      },
      "selinux_python_present": false,
      "service_mgr": "systemd",
      "ssh_host_key_dsa_public": "AAAAB3NzaC1kc3MAAACBALYulxAjp/0IdVhy134Oe0UTPbxn6DrepdCDTpcAaYZr+z2T04J74/BTlAdFH6G9ZMkOd/owgDkiSISy4ltC4voyEfRYAsI9XL3oXOGseUomdDqJqjS8jEDn4o41suVB8DhDPc+MnX515Y0ckdqXLhZ272XWGlV51L2Y/SJoTn63AAAAFQCYM9RLkjK78OJFwF8ReQpSy6sgNQAAAIB0cuZCSo/uEbR4HLLuugHfloirWNxpJ4KmBPqavqLPVwHeuorXWMXsshOGgdTtphg1sNK++BaLgozPpmeVHnkz5BHDUtErIW9wlASD140Aqw7XcrTZV6imBlr+WHSAG/JnBOED2S6It8S5mVHm3H7g1YgAgplgEhLHiqjVgznIfAAAAIBmzMolWFhvmDf4kTJkrPxxIQ27EBqiX0MkHLOhiVP8pKNqu5/8SUe7W4+Nd8KqYeQctluvzFFtXIlg+t9yjjBHmlpuXxqydsqwLFJnBHtZWsdT2QvK8Mt0ZWUVdh24J/ALyartoyJun1TQB9e6EGYnic2rzGTS2JfTLEQY1PEMSA==",
      "ssh_host_key_dsa_public_keytype": "ssh-dss",
      "ssh_host_key_ecdsa_public": "AAAAE2VjZHNhLXNoYTItbmlzdHAyNTYAAAAIbmlzdHAyNTYAAABBBHWG4lVASDP1IVeTFE71tNaOTlmX/8FqMr8pUF623KTvDr6I/UCqBJw/J9rSRZCn+xVc4GCEVfw3+ZU4vxwEhuw=",
      "ssh_host_key_ecdsa_public_keytype": "ecdsa-sha2-nistp256",
      "ssh_host_key_ed25519_public": "AAAAC3NzaC1lZDI1NTE5AAAAILLvIONFFqZ+0+x1lXAcdp28OH9vaInpnnvY9EGOtF1y",
      "ssh_host_key_ed25519_public_keytype": "ssh-ed25519",
      "ssh_host_key_rsa_public": "AAAAB3NzaC1yc2EAAAADAQABAAABAQC/q0uSDDNwFHzEyzYSHym6RryaG3nxoZaLwcjPbyMcuANwxe40RkXHilpo4ujsHMx7X8my+1+HFDytaG3XusyLCnxqYeuWgjA6BvBnt8mncWPPG/QIkhF8Ug5VjocHMK5ujRqPoesL3ZJZogc0hW2m0N+eDfWvOqf0VqHKrEMH0nnE5lxr9HClFvG78JK0nJfUw9DrJv6aCCsvJLmNIAKj9OB/GHYliLCSHWJf7Nhx5bJjJ4sBmfNVx3uJj42ij7wMhFUJXMCVdr6PhiSZfbC6I0z78Q6WxjSaekcM+05QXpaPoUFurO0s5e9TOAhMCw6FTbiNiDpGxfXhpq9OF00n",
      "ssh_host_key_rsa_public_keytype": "ssh-rsa",
      "swapfree_mb": 979,
      "swaptotal_mb": 979,
      "system": "Linux",
      "system_capabilities": [
        "cap_chown",
        "cap_dac_override",
        "cap_dac_read_search",
        "cap_fowner",
        "cap_fsetid",
        "cap_kill",
        "cap_setgid",
        "cap_setuid",
        "cap_setpcap",
        "cap_linux_immutable",
        "cap_net_bind_service",
        "cap_net_broadcast",
        "cap_net_admin",
        "cap_net_raw",
        "cap_ipc_lock",
        "cap_ipc_owner",
        "cap_sys_module",
        "cap_sys_rawio",
        "cap_sys_chroot",
        "cap_sys_ptrace",
        "cap_sys_pacct",
        "cap_sys_admin",
        "cap_sys_boot",
        "cap_sys_nice",
        "cap_sys_resource",
        "cap_sys_time",
        "cap_sys_tty_config",
        "cap_mknod",
        "cap_lease",
        "cap_audit_write",
        "cap_audit_control",
        "cap_setfcap",
        "cap_mac_override",
        "cap_mac_admin",
        "cap_syslog",
        "cap_wake_alarm",
        "cap_block_suspend",
        "cap_audit_read+ep"
      ],
      "system_capabilities_enforced": "True",
      "system_vendor": "QEMU",
      "uptime_seconds": 207,
      "user_dir": "/root",
      "user_gecos": "root",
      "user_gid": 0,
      "user_id": "root",
      "user_shell": "/bin/bash",
      "user_uid": 0,
      "userspace_architecture": "x86_64",
      "userspace_bits": "64",
      "virtualization_role": "guest",
      "virtualization_type": "kvm"
    },
    "ansible_fibre_channel_wwn": [],
    "ansible_fips": false,
    "ansible_forks": 100,
    "ansible_form_factor": "Other",
    "ansible_fqdn": "localhost",
    "ansible_hostname": "tansiv-192-168-1-11",
    "ansible_hostnqn": "",
    "ansible_interfaces": [
      "ens4",
      "lo",
      "ens3"
    ],
    "ansible_is_chroot": false,
    "ansible_iscsi_iqn": "",
    "ansible_kernel": "4.19.0-16-amd64",
    "ansible_kernel_version": "#1 SMP Debian 4.19.181-1 (2021-03-19)",
    "ansible_lo": {
      "active": true,
      "device": "lo",
      "ipv4": {
        "address": "127.0.0.1",
        "broadcast": "",
        "netmask": "255.0.0.0",
        "network": "127.0.0.0"
      },
      "ipv6": [
        {
          "address": "::1",
          "prefix": "128",
          "scope": "host"
        }
      ],
      "mtu": 65536,
      "promisc": false,
      "type": "loopback"
    },
    "ansible_local": {},
    "ansible_lsb": {
      "codename": "buster",
      "description": "Debian GNU/Linux 10 (buster)",
      "id": "Debian",
      "major_release": "10",
      "release": "10"
    },
    "ansible_lvm": {
      "lvs": {
        "root": {
          "size_g": "98.56",
          "vg": "vm-vg"
        },
        "swap_1": {
          "size_g": "0.96",
          "vg": "vm-vg"
        }
      },
      "pvs": {
        "/dev/sda5": {
          "free_g": "0",
          "size_g": "99.52",
          "vg": "vm-vg"
        }
      },
      "vgs": {
        "vm-vg": {
          "free_g": "0",
          "num_lvs": "2",
          "num_pvs": "1",
          "size_g": "99.52"
        }
      }
    },
    "ansible_machine": "x86_64",
    "ansible_machine_id": "f6627ef2be954253b631559bd8f6f0ec",
    "ansible_memfree_mb": 663,
    "ansible_memory_mb": {
      "nocache": {
        "free": 896,
        "used": 91
      },
      "real": {
        "free": 663,
        "total": 987,
        "used": 324
      },
      "swap": {
        "cached": 0,
        "free": 979,
        "total": 979,
        "used": 0
      }
    },
    "ansible_memtotal_mb": 987,
    "ansible_mounts": [
      {
        "block_available": 23625719,
        "block_size": 4096,
        "block_total": 25300740,
        "block_used": 1675021,
        "device": "/dev/mapper/vm--vg-root",
        "fstype": "ext4",
        "inode_available": 6400912,
        "inode_total": 6463488,
        "inode_used": 62576,
        "mount": "/",
        "options": "rw,relatime,errors=remount-ro",
        "size_available": 96770945024,
        "size_total": 103631831040,
        "uuid": "dc7ee9cb-dfd5-47ee-af96-76f82c09b0cb"
      },
      {
        "block_available": 408187,
        "block_size": 1024,
        "block_total": 482922,
        "block_used": 74735,
        "device": "/dev/sda1",
        "fstype": "ext2",
        "inode_available": 124589,
        "inode_total": 124928,
        "inode_used": 339,
        "mount": "/boot",
        "options": "rw,relatime",
        "size_available": 417983488,
        "size_total": 494512128,
        "uuid": "4dad1f6c-b937-4490-841c-ea682879dd5f"
      }
    ],
    "ansible_nodename": "tansiv-192-168-1-11",
    "ansible_os_family": "Debian",
    "ansible_pkg_mgr": "apt",
    "ansible_playbook_python": "/home/lorilling/tansiv-xps/2021-07-05_TS-vs-NTS-network-behavior/venv/bin/python3",
    "ansible_proc_cmdline": {
      "BOOT_IMAGE": "/vmlinuz-4.19.0-16-amd64",
      "debian-installer": "en_US.UTF-8",
      "quiet": true,
      "ro": true,
      "root": "/dev/mapper/vm--vg-root"
    },
    "ansible_processor": [
      "0",
      "AuthenticAMD",
      "QEMU Virtual CPU version 2.5+"
    ],
    "ansible_processor_cores": 1,
    "ansible_processor_count": 1,
    "ansible_processor_nproc": 1,
    "ansible_processor_threads_per_core": 1,
    "ansible_processor_vcpus": 1,
    "ansible_product_name": "Standard PC (i440FX + PIIX, 1996)",
    "ansible_product_serial": "NA",
    "ansible_product_uuid": "NA",
    "ansible_product_version": "pc-i440fx-5.0",
    "ansible_python": {
      "executable": "/usr/bin/python",
      "has_sslcontext": true,
      "type": "CPython",
      "version": {
        "major": 2,
        "micro": 16,
        "minor": 7,
        "releaselevel": "final",
        "serial": 0
      },
      "version_info": [
        2,
        7,
        16,
        "final",
        0
      ]
    },
    "ansible_python_version": "2.7.16",
    "ansible_real_group_id": 0,
    "ansible_real_user_id": 0,
    "ansible_run_tags": [],
    "ansible_selinux": {
      "status": "Missing selinux Python library"
    },
    "ansible_selinux_python_present": false,
    "ansible_service_mgr": "systemd",
    "ansible_ssh_common_args": "-o StrictHostKeyChecking=no -o UserKnownHostsFile=/dev/null",
    "ansible_ssh_host_key_dsa_public": "AAAAB3NzaC1kc3MAAACBALYulxAjp/0IdVhy134Oe0UTPbxn6DrepdCDTpcAaYZr+z2T04J74/BTlAdFH6G9ZMkOd/owgDkiSISy4ltC4voyEfRYAsI9XL3oXOGseUomdDqJqjS8jEDn4o41suVB8DhDPc+MnX515Y0ckdqXLhZ272XWGlV51L2Y/SJoTn63AAAAFQCYM9RLkjK78OJFwF8ReQpSy6sgNQAAAIB0cuZCSo/uEbR4HLLuugHfloirWNxpJ4KmBPqavqLPVwHeuorXWMXsshOGgdTtphg1sNK++BaLgozPpmeVHnkz5BHDUtErIW9wlASD140Aqw7XcrTZV6imBlr+WHSAG/JnBOED2S6It8S5mVHm3H7g1YgAgplgEhLHiqjVgznIfAAAAIBmzMolWFhvmDf4kTJkrPxxIQ27EBqiX0MkHLOhiVP8pKNqu5/8SUe7W4+Nd8KqYeQctluvzFFtXIlg+t9yjjBHmlpuXxqydsqwLFJnBHtZWsdT2QvK8Mt0ZWUVdh24J/ALyartoyJun1TQB9e6EGYnic2rzGTS2JfTLEQY1PEMSA==",
    "ansible_ssh_host_key_dsa_public_keytype": "ssh-dss",
    "ansible_ssh_host_key_ecdsa_public": "AAAAE2VjZHNhLXNoYTItbmlzdHAyNTYAAAAIbmlzdHAyNTYAAABBBHWG4lVASDP1IVeTFE71tNaOTlmX/8FqMr8pUF623KTvDr6I/UCqBJw/J9rSRZCn+xVc4GCEVfw3+ZU4vxwEhuw=",
    "ansible_ssh_host_key_ecdsa_public_keytype": "ecdsa-sha2-nistp256",
    "ansible_ssh_host_key_ed25519_public": "AAAAC3NzaC1lZDI1NTE5AAAAILLvIONFFqZ+0+x1lXAcdp28OH9vaInpnnvY9EGOtF1y",
    "ansible_ssh_host_key_ed25519_public_keytype": "ssh-ed25519",
    "ansible_ssh_host_key_rsa_public": "AAAAB3NzaC1yc2EAAAADAQABAAABAQC/q0uSDDNwFHzEyzYSHym6RryaG3nxoZaLwcjPbyMcuANwxe40RkXHilpo4ujsHMx7X8my+1+HFDytaG3XusyLCnxqYeuWgjA6BvBnt8mncWPPG/QIkhF8Ug5VjocHMK5ujRqPoesL3ZJZogc0hW2m0N+eDfWvOqf0VqHKrEMH0nnE5lxr9HClFvG78JK0nJfUw9DrJv6aCCsvJLmNIAKj9OB/GHYliLCSHWJf7Nhx5bJjJ4sBmfNVx3uJj42ij7wMhFUJXMCVdr6PhiSZfbC6I0z78Q6WxjSaekcM+05QXpaPoUFurO0s5e9TOAhMCw6FTbiNiDpGxfXhpq9OF00n",
    "ansible_ssh_host_key_rsa_public_keytype": "ssh-rsa",
    "ansible_ssh_user": "root",
    "ansible_swapfree_mb": 979,
    "ansible_swaptotal_mb": 979,
    "ansible_system": "Linux",
    "ansible_system_capabilities": [
      "cap_chown",
      "cap_dac_override",
      "cap_dac_read_search",
      "cap_fowner",
      "cap_fsetid",
      "cap_kill",
      "cap_setgid",
      "cap_setuid",
      "cap_setpcap",
      "cap_linux_immutable",
      "cap_net_bind_service",
      "cap_net_broadcast",
      "cap_net_admin",
      "cap_net_raw",
      "cap_ipc_lock",
      "cap_ipc_owner",
      "cap_sys_module",
      "cap_sys_rawio",
      "cap_sys_chroot",
      "cap_sys_ptrace",
      "cap_sys_pacct",
      "cap_sys_admin",
      "cap_sys_boot",
      "cap_sys_nice",
      "cap_sys_resource",
      "cap_sys_time",
      "cap_sys_tty_config",
      "cap_mknod",
      "cap_lease",
      "cap_audit_write",
      "cap_audit_control",
      "cap_setfcap",
      "cap_mac_override",
      "cap_mac_admin",
      "cap_syslog",
      "cap_wake_alarm",
      "cap_block_suspend",
      "cap_audit_read+ep"
    ],
    "ansible_system_capabilities_enforced": "True",
    "ansible_system_vendor": "QEMU",
    "ansible_uptime_seconds": 207,
    "ansible_user_dir": "/root",
    "ansible_user_gecos": "root",
    "ansible_user_gid": 0,
    "ansible_user_id": "root",
    "ansible_user_shell": "/bin/bash",
    "ansible_user_uid": 0,
    "ansible_userspace_architecture": "x86_64",
    "ansible_userspace_bits": "64",
    "ansible_verbosity": 2,
    "ansible_version": "Unknown",
    "ansible_virtualization_role": "guest",
    "ansible_virtualization_type": "kvm",
    "discovered_interpreter_python": "/usr/bin/python",
    "enos_action": "check_network",
    "facts_file": "/home/lorilling/tansiv-xps/2021-07-05_TS-vs-NTS-network-behavior/results/nts_lat_2/_tmp_enos_/facts.json",
    "gather_subset": [
      "all"
    ],
    "group_names": [
      "ungrouped"
    ],
    "groups": {
      "all": [
        "mantap10",
        "mantap11"
      ],
      "ungrouped": [
        "mantap10",
        "mantap11"
      ]
    },
    "inventory_dir": null,
    "inventory_file": null,
    "inventory_hostname": "mantap11",
    "inventory_hostname_short": "mantap11",
    "module_setup": true,
    "omit": "__omit_place_holder__8a427be8c5d2719a9550726e3bb107041af497dd",
    "playbook_dir": "/home/lorilling/tansiv-xps/2021-07-05_TS-vs-NTS-network-behavior/venv/lib/python3.7/site-packages/enoslib/ansible",
    "tansiv_address": "192.168.1.11",
    "tansiv_alias": "tantap11"
  }
}
